<?xml version="1.0" encoding="UTF-8" standalone="no"?>
<!-- Created with Inkscape (http://www.inkscape.org/) -->

<svg
   width="130mm"
   height="130mm"
   viewBox="0 0 130 130"
   version="1.1"
   id="svg5"
   inkscape:version="1.1.2 (0a00cf5339, 2022-02-04)"
   sodipodi:docname="logo.svg"
   inkscape:export-filename="/home/andy/code/public/santa-circles/images-src/logo-256.png"
   inkscape:export-xdpi="50.02"
   inkscape:export-ydpi="50.02"
   xmlns:inkscape="http://www.inkscape.org/namespaces/inkscape"
   xmlns:sodipodi="http://sodipodi.sourceforge.net/DTD/sodipodi-0.dtd"
   xmlns="http://www.w3.org/2000/svg"
   xmlns:svg="http://www.w3.org/2000/svg">
  <sodipodi:namedview
     id="namedview7"
     pagecolor="#ffffff"
     bordercolor="#666666"
     borderopacity="1.0"
     inkscape:pageshadow="2"
     inkscape:pageopacity="0.0"
     inkscape:pagecheckerboard="0"
     inkscape:document-units="mm"
     showgrid="false"
     fit-margin-top="0"
     fit-margin-left="0"
     fit-margin-right="0"
     fit-margin-bottom="0"
     inkscape:zoom="0.53362093"
     inkscape:cx="469.43436"
     inkscape:cy="223.00475"
     inkscape:window-width="1920"
     inkscape:window-height="1025"
     inkscape:window-x="0"
     inkscape:window-y="29"
     inkscape:window-maximized="1"
     inkscape:current-layer="layer1" />
  <defs
     id="defs2" />
  <g
     inkscape:label="Layer 1"
     inkscape:groupmode="layer"
     id="layer1"
     transform="translate(-45.471737,-41.029865)">
    <path
       style="fill:#ffffff;fill-opacity:1;stroke:#000000;stroke-width:5.29167;stroke-linecap:butt;stroke-linejoin:miter;stroke-miterlimit:4;stroke-dasharray:none;stroke-opacity:1"
       d="m 54.388936,151.24645 c 27.772035,-2.86255 54.114764,-2.06066 77.107654,1.43632 l 1.23216,-17.81672 c -25.65448,-4.35175 -51.9498,-4.95877 -79.195043,-0.0148 z"
       id="path42"
       sodipodi:nodetypes="ccccc" />
    <path
       style="fill:#ff0000;fill-opacity:1;stroke:#000000;stroke-width:5.29166667;stroke-linecap:butt;stroke-linejoin:miter;stroke-miterlimit:4;stroke-dasharray:none;stroke-opacity:1"
       d="m 53.533707,134.85125 c 0,0 8.162167,-37.194686 20.104422,-50.223704 11.942255,-13.029018 26.715851,-19.856903 41.616281,-20.061204 14.90042,-0.204301 26.63035,6.894361 36.39158,15.819244 9.76123,8.924883 10.53719,29.298544 10.53719,29.298544 l -3.84484,1.42346 c 0,0 -5.88184,-8.31441 -14.24592,-11.751313 -8.36408,-3.4369 -10.90099,-3.444336 -16.67265,-0.901681 -4.33959,1.911764 -8.93607,7.881834 -8.85618,12.497264 0.18404,10.63241 9.42014,15.95648 14.16516,23.91419 0,0 -54.409204,-4.23799 -79.195043,-0.0148 z"
       id="path286"
       sodipodi:nodetypes="czzzcczsscc" />
    <circle
       style="fill:#ffffff;stroke:#000000;stroke-width:5.29166667;stroke-miterlimit:4;stroke-dasharray:none;stroke-dashoffset:0;stroke-opacity:1"
       id="path1127"
       cx="162.38161"
       cy="119.34382"
       r="10.324644" />
  </g>
</svg>
